<?xml version="1.0" encoding="UTF-8"?>
<svg width="96px" height="48px" viewBox="0 0 96 48" version="1.1" xmlns="http://www.w3.org/2000/svg" xmlns:xlink="http://www.w3.org/1999/xlink">
    <!-- Generator: Sketch 53.2 (72643) - https://sketchapp.com -->
    <title>Artboard</title>
    <desc>Created with Sketch.</desc>
    <g id="Artboard" stroke="none" stroke-width="1" fill="none" fill-rule="evenodd">
        <path d="M10,0 L86,0 C91.5228475,-1.11022302e-15 96,4.4771525 96,10 L96,38 C96,43.5228475 91.5228475,48 86,48 L10,48 C4.4771525,48 5.55111512e-16,43.5228475 0,38 L0,10 C-5.55111512e-16,4.4771525 4.4771525,1.11022302e-15 10,0 Z M10,2 C5.581722,2 2,5.581722 2,10 L2,38 C2,42.418278 5.581722,46 10,46 L86,46 C90.418278,46 94,42.418278 94,38 L94,10 C94,5.581722 90.418278,2 86,2 L10,2 Z M40.7071068,21.7071068 C40.3165825,22.0976311 39.6834175,22.0976311 39.2928932,21.7071068 C38.9023689,21.3165825 38.9023689,20.6834175 39.2928932,20.2928932 L47.2928932,12.2928932 C47.6834175,11.9023689 48.3165825,11.9023689 48.7071068,12.2928932 L56.7071068,20.2928932 C57.0976311,20.6834175 57.0976311,21.3165825 56.7071068,21.7071068 C56.3165825,22.0976311 55.6834175,22.0976311 55.2928932,21.7071068 L48,14.4142136 L40.7071068,21.7071068 Z M55.2928932,26.2928932 C55.6834175,25.9023689 56.3165825,25.9023689 56.7071068,26.2928932 C57.0976311,26.6834175 57.0976311,27.3165825 56.7071068,27.7071068 L48.7071068,35.7071068 C48.3165825,36.0976311 47.6834175,36.0976311 47.2928932,35.7071068 L39.2928932,27.7071068 C38.9023689,27.3165825 38.9023689,26.6834175 39.2928932,26.2928932 C39.6834175,25.9023689 40.3165825,25.9023689 40.7071068,26.2928932 L48,33.5857864 L55.2928932,26.2928932 Z" id="Shape" fill="#1B3341" fill-rule="nonzero"></path>
    </g>
</svg>